--temp-output:E:\freeoutsource\cartdoan\cartshoping\CartShop\src\CartShop.Data\obj\Release\netstandard1.6\
--out:E:\freeoutsource\cartdoan\cartshoping\CartShop\src\CartShop.Data\bin\Release\netstandard1.6\CartShop.Data.dll
--define:RELEASE
--define:TRACE
--define:NETSTANDARD1_6
--suppress-warning:CS1701
--suppress-warning:CS1702
--suppress-warning:CS1705
--optimize:True
--output-name:CartShop.Data
--file-version:1.0.0.0
--version:1.0.0.0
--informational-version:1.0.0
--target-framework:.NETStandard,Version=v1.6
--reference:C:\Users\nam\.nuget\packages\Microsoft.Win32.Primitives\4.3.0\ref\netstandard1.3\Microsoft.Win32.Primitives.dll
--reference:C:\Users\nam\.nuget\packages\System.AppContext\4.3.0\ref\netstandard1.6\System.AppContext.dll
--reference:C:\Users\nam\.nuget\packages\System.Collections\4.3.0\ref\netstandard1.3\System.Collections.dll
--reference:C:\Users\nam\.nuget\packages\System.Collections.Concurrent\4.3.0\ref\netstandard1.3\System.Collections.Concurrent.dll
--reference:C:\Users\nam\.nuget\packages\System.Console\4.3.0\ref\netstandard1.3\System.Console.dll
--reference:C:\Users\nam\.nuget\packages\System.Diagnostics.Debug\4.3.0\ref\netstandard1.3\System.Diagnostics.Debug.dll
--reference:C:\Users\nam\.nuget\packages\System.Diagnostics.Tools\4.3.0\ref\netstandard1.0\System.Diagnostics.Tools.dll
--reference:C:\Users\nam\.nuget\packages\System.Diagnostics.Tracing\4.3.0\ref\netstandard1.5\System.Diagnostics.Tracing.dll
--reference:C:\Users\nam\.nuget\packages\System.Globalization\4.3.0\ref\netstandard1.3\System.Globalization.dll
--reference:C:\Users\nam\.nuget\packages\System.Globalization.Calendars\4.3.0\ref\netstandard1.3\System.Globalization.Calendars.dll
--reference:C:\Users\nam\.nuget\packages\System.IO\4.3.0\ref\netstandard1.5\System.IO.dll
--reference:C:\Users\nam\.nuget\packages\System.IO.Compression\4.3.0\ref\netstandard1.3\System.IO.Compression.dll
--reference:C:\Users\nam\.nuget\packages\System.IO.Compression.ZipFile\4.3.0\ref\netstandard1.3\System.IO.Compression.ZipFile.dll
--reference:C:\Users\nam\.nuget\packages\System.IO.FileSystem\4.3.0\ref\netstandard1.3\System.IO.FileSystem.dll
--reference:C:\Users\nam\.nuget\packages\System.IO.FileSystem.Primitives\4.3.0\ref\netstandard1.3\System.IO.FileSystem.Primitives.dll
--reference:C:\Users\nam\.nuget\packages\System.Linq\4.3.0\ref\netstandard1.6\System.Linq.dll
--reference:C:\Users\nam\.nuget\packages\System.Linq.Expressions\4.3.0\ref\netstandard1.6\System.Linq.Expressions.dll
--reference:C:\Users\nam\.nuget\packages\System.Net.Http\4.3.0\ref\netstandard1.3\System.Net.Http.dll
--reference:C:\Users\nam\.nuget\packages\System.Net.Primitives\4.3.0\ref\netstandard1.3\System.Net.Primitives.dll
--reference:C:\Users\nam\.nuget\packages\System.Net.Sockets\4.3.0\ref\netstandard1.3\System.Net.Sockets.dll
--reference:C:\Users\nam\.nuget\packages\System.ObjectModel\4.3.0\ref\netstandard1.3\System.ObjectModel.dll
--reference:C:\Users\nam\.nuget\packages\System.Reflection\4.3.0\ref\netstandard1.5\System.Reflection.dll
--reference:C:\Users\nam\.nuget\packages\System.Reflection.Extensions\4.3.0\ref\netstandard1.0\System.Reflection.Extensions.dll
--reference:C:\Users\nam\.nuget\packages\System.Reflection.Primitives\4.3.0\ref\netstandard1.0\System.Reflection.Primitives.dll
--reference:C:\Users\nam\.nuget\packages\System.Resources.ResourceManager\4.3.0\ref\netstandard1.0\System.Resources.ResourceManager.dll
--reference:C:\Users\nam\.nuget\packages\System.Runtime\4.3.0\ref\netstandard1.5\System.Runtime.dll
--reference:C:\Users\nam\.nuget\packages\System.Runtime.Extensions\4.3.0\ref\netstandard1.5\System.Runtime.Extensions.dll
--reference:C:\Users\nam\.nuget\packages\System.Runtime.Handles\4.3.0\ref\netstandard1.3\System.Runtime.Handles.dll
--reference:C:\Users\nam\.nuget\packages\System.Runtime.InteropServices\4.3.0\ref\netstandard1.5\System.Runtime.InteropServices.dll
--reference:C:\Users\nam\.nuget\packages\System.Runtime.InteropServices.RuntimeInformation\4.3.0\ref\netstandard1.1\System.Runtime.InteropServices.RuntimeInformation.dll
--reference:C:\Users\nam\.nuget\packages\System.Runtime.Numerics\4.3.0\ref\netstandard1.1\System.Runtime.Numerics.dll
--reference:C:\Users\nam\.nuget\packages\System.Security.Cryptography.Algorithms\4.3.0\ref\netstandard1.6\System.Security.Cryptography.Algorithms.dll
--reference:C:\Users\nam\.nuget\packages\System.Security.Cryptography.Encoding\4.3.0\ref\netstandard1.3\System.Security.Cryptography.Encoding.dll
--reference:C:\Users\nam\.nuget\packages\System.Security.Cryptography.Primitives\4.3.0\ref\netstandard1.3\System.Security.Cryptography.Primitives.dll
--reference:C:\Users\nam\.nuget\packages\System.Security.Cryptography.X509Certificates\4.3.0\ref\netstandard1.4\System.Security.Cryptography.X509Certificates.dll
--reference:C:\Users\nam\.nuget\packages\System.Text.Encoding\4.3.0\ref\netstandard1.3\System.Text.Encoding.dll
--reference:C:\Users\nam\.nuget\packages\System.Text.Encoding.Extensions\4.3.0\ref\netstandard1.3\System.Text.Encoding.Extensions.dll
--reference:C:\Users\nam\.nuget\packages\System.Text.RegularExpressions\4.3.0\ref\netstandard1.6\System.Text.RegularExpressions.dll
--reference:C:\Users\nam\.nuget\packages\System.Threading\4.3.0\ref\netstandard1.3\System.Threading.dll
--reference:C:\Users\nam\.nuget\packages\System.Threading.Tasks\4.3.0\ref\netstandard1.3\System.Threading.Tasks.dll
--reference:C:\Users\nam\.nuget\packages\System.Threading.Timer\4.3.0\ref\netstandard1.2\System.Threading.Timer.dll
--reference:C:\Users\nam\.nuget\packages\System.Xml.ReaderWriter\4.3.0\ref\netstandard1.3\System.Xml.ReaderWriter.dll
--reference:C:\Users\nam\.nuget\packages\System.Xml.XDocument\4.3.0\ref\netstandard1.3\System.Xml.XDocument.dll
E:\freeoutsource\cartdoan\cartshoping\CartShop\src\CartShop.Data\Dto\ProductDto.cs
E:\freeoutsource\cartdoan\cartshoping\CartShop\src\CartShop.Data\Enum\Result.cs
E:\freeoutsource\cartdoan\cartshoping\CartShop\src\CartShop.Data\Properties\AssemblyInfo.cs
